^D:\PROJECTS\SNAKE GAME\PROJECT1\PROJECT1\DEBUG\ASTAR.OBJ|D:\PROJECTS\SNAKE GAME\PROJECT1\PROJECT1\DEBUG\GAMEMANAGER.OBJ|D:\PROJECTS\SNAKE GAME\PROJECT1\PROJECT1\DEBUG\PATHFINDING.OBJ|D:\PROJECTS\SNAKE GAME\PROJECT1\PROJECT1\DEBUG\SOURCE.OBJ
C:\PROGRAM FILES (X86)\WINDOWS KITS\8.1\LIB\WINV6.3\UM\X86\KERNEL32.LIB
C:\PROGRAM FILES (X86)\WINDOWS KITS\8.1\LIB\WINV6.3\UM\X86\USER32.LIB
C:\PROGRAM FILES (X86)\WINDOWS KITS\8.1\LIB\WINV6.3\UM\X86\GDI32.LIB
C:\PROGRAM FILES (X86)\WINDOWS KITS\8.1\LIB\WINV6.3\UM\X86\WINSPOOL.LIB
C:\PROGRAM FILES (X86)\WINDOWS KITS\8.1\LIB\WINV6.3\UM\X86\COMDLG32.LIB
C:\PROGRAM FILES (X86)\WINDOWS KITS\8.1\LIB\WINV6.3\UM\X86\ADVAPI32.LIB
C:\PROGRAM FILES (X86)\WINDOWS KITS\8.1\LIB\WINV6.3\UM\X86\SHELL32.LIB
C:\PROGRAM FILES (X86)\WINDOWS KITS\8.1\LIB\WINV6.3\UM\X86\OLE32.LIB
C:\PROGRAM FILES (X86)\WINDOWS KITS\8.1\LIB\WINV6.3\UM\X86\OLEAUT32.LIB
C:\PROGRAM FILES (X86)\WINDOWS KITS\8.1\LIB\WINV6.3\UM\X86\UUID.LIB
C:\PROGRAM FILES (X86)\WINDOWS KITS\8.1\LIB\WINV6.3\UM\X86\ODBC32.LIB
C:\PROGRAM FILES (X86)\WINDOWS KITS\8.1\LIB\WINV6.3\UM\X86\ODBCCP32.LIB
D:\PROJECTS\SNAKE GAME\PROJECT1\PROJECT1\DEBUG\ASTAR.OBJ
D:\PROJECTS\SNAKE GAME\PROJECT1\PROJECT1\DEBUG\GAMEMANAGER.OBJ
D:\PROJECTS\SNAKE GAME\PROJECT1\PROJECT1\DEBUG\PATHFINDING.OBJ
D:\PROJECTS\SNAKE GAME\PROJECT1\PROJECT1\DEBUG\SOURCE.OBJ
C:\WINDOWS\SYSTEM32\TZRES.DLL
C:\WINDOWS\GLOBALIZATION\SORTING\SORTDEFAULT.NLS
C:\CLASSIFIED FILES\VISUALSTUDIO\VC\LIB\MSVCPRTD.LIB
C:\CLASSIFIED FILES\VISUALSTUDIO\VC\LIB\MSVCRTD.LIB
C:\CLASSIFIED FILES\VISUALSTUDIO\VC\LIB\OLDNAMES.LIB
